day-1/hardcaml/test_fullsol_ml_AOC_Day_1_Complete_Hardcaml_Solution.vcd
$date
  ...
$end
$version
  hardcaml-cyclesim
$end
$comment
  Hardware design in ocaml
$end
$timescale 1ns $end
$scope module inputs $end
$var wire 1 ! -clock $end
$var wire 1 " -reset $end
$var wire 1 % clk $end
$var wire 1 & dir_r $end
$var wire 32 # in_data $end
$var wire 1 $ rst $end
$upscope $end
$scope module outputs $end
$var wire 8 ( curr_pos_op $end
$var wire 4 ) dir_r_reg $end
$var wire 32 ' zero_count $end
$var wire 32 * zero_crossings $end
$upscope $end
$scope module various $end
$var wire 1 7 gnd $end
$scope module top $end
$scope module -inputs $end
$var wire 1 - clk $end
$var wire 1 , dir_r $end
$var wire 32 1 in_data $end
$var wire 1 . rst $end
$upscope $end
$scope module -outputs $end
$var wire 8 4 curr_pos_op $end
$var wire 4 5 dir_r_reg $end
$var wire 32 + zero_count $end
$var wire 32 6 zero_crossings $end
$upscope $end
$scope module mod100 $end
$scope module -inputs $end
$var wire 1 2 clk $end
$var wire 32 0 data_in $end
$var wire 1 3 rst $end
$upscope $end
$scope module -outputs $end
$var wire 8 / rot_by $end
$upscope $end
$upscope $end
$upscope $end
$upscope $end
$enddefinitions $end
$dumpvars
x!
x"
x%
x&
bxxxxxxxxxxxxxxxxxxxxxxxxxxxxxxxx #
x$
bxxxxxxxx (
bxxxx )
bxxxxxxxxxxxxxxxxxxxxxxxxxxxxxxxx '
bxxxxxxxxxxxxxxxxxxxxxxxxxxxxxxxx *
x7
x-
x,
bxxxxxxxxxxxxxxxxxxxxxxxxxxxxxxxx 1
x.
bxxxxxxxx 4
bxxxx 5
bxxxxxxxxxxxxxxxxxxxxxxxxxxxxxxxx +
bxxxxxxxxxxxxxxxxxxxxxxxxxxxxxxxx 6
x2
bxxxxxxxxxxxxxxxxxxxxxxxxxxxxxxxx 0
x3
bxxxxxxxx /
$end
#0
1!
0"
b00000000000000000000000000000000 #
0$
0%
0&
b00000000000000000000000000000000 '
b00110010 (
b0000 )
b00000000000000000000000000000000 *
b00000000000000000000000000000000 +
0,
0-
0.
b00000000 /
b00000000000000000000000000000000 0
b00000000000000000000000000000000 1
02
03
b00110010 4
b0000 5
b00000000000000000000000000000000 6
07
#5
0!
#10
1!
0"
1$
1.
13
#15
0!
#20
1!
0"
0$
0.
03
#25
0!
#30
1!
0"
b00000000000000000000000001000100 #
b00000000000000000000000001000100 0
b00000000000000000000000001000100 1
#35
0!
#40
1!
0"
b00000000000000000000000000011110 #
b00000000000000000000000000011110 0
b00000000000000000000000000011110 1
#45
0!
#50
1!
0"
b00000000000000000000000000110000 #
1&
1,
b00000000000000000000000000110000 0
b00000000000000000000000000110000 1
#55
0!
#60
1!
0"
b00000000000000000000000000000101 #
0&
b0001 )
0,
b00000000000000000000000000000101 0
b00000000000000000000000000000101 1
b0001 5
#65
0!
#70
1!
0"
b00000000000000000000000000111100 #
1&
b0010 )
1,
b01000100 /
b00000000000000000000000000111100 0
b00000000000000000000000000111100 1
b0010 5
#75
0!
#80
1!
0"
b00000000000000000000000000110111 #
0&
b01010010 (
b0101 )
b00000000000000000000000000000001 *
0,
b00011110 /
b00000000000000000000000000110111 0
b00000000000000000000000000110111 1
b01010010 4
b0101 5
b00000000000000000000000000000001 6
#85
0!
#90
1!
0"
b00000000000000000000000000000001 #
b00110100 (
b1010 )
b00110000 /
b00000000000000000000000000000001 0
b00000000000000000000000000000001 1
b00110100 4
b1010 5
#95
0!
#100
1!
0"
b00000000000000000000000001100011 #
b00000000 (
b0100 )
b00000101 /
b00000000000000000000000001100011 0
b00000000000000000000000001100011 1
b00000000 4
b0100 5
#105
0!
#110
1!
0"
b00000000000000000000000000001110 #
1&
b00000000000000000000000000000001 '
b01011111 (
b1000 )
b00000000000000000000000000000001 +
1,
b00111100 /
b00000000000000000000000000001110 0
b00000000000000000000000000001110 1
b01011111 4
b1000 5
#115
0!
#120
1!
0"
b00000000000000000000000001010010 #
0&
b00110111 (
b0001 )
b00000000000000000000000000000010 *
0,
b00110111 /
b00000000000000000000000001010010 0
b00000000000000000000000001010010 1
b00110111 4
b0001 5
b00000000000000000000000000000010 6
#125
0!
#130
1!
0"
b00000000000000000000000000000000 #
b00000000 (
b0010 )
b00000001 /
b00000000000000000000000000000000 0
b00000000000000000000000000000000 1
b00000000 4
b0010 5
#135
0!
#140
1!
0"
b00000000000000000000000000000010 '
b01100011 (
b0100 )
b00000000000000000000000000000010 +
b01100011 /
b01100011 4
b0100 5
#145
0!
#150
1!
0"
b00000000 (
b1000 )
b00001110 /
b00000000 4
b1000 5
#155
0!
#160
1!
0"
b00000000000000000000000000000011 '
b00001110 (
b0000 )
b00000000000000000000000000000011 +
b01010010 /
b00001110 4
b0000 5
#165
0!
#170
1!
0"
b00100000 (
b00000000000000000000000000000011 *
b00000000 /
b00100000 4
b00000000000000000000000000000011 6
#175
0!
#180
1!
0"
#185
0!
#190
1!
0"
#195
0!
#200
1!
0"
#205
0!
#210
1!
0"
#215
0!
#220
1!
0"
#225
0!
