day-3/system-verilog/tb_sol_streaming.vcd
$date
	Thu Jan 15 23:10:49 2026
$end
$version
	Icarus Verilog
$end
$timescale
	1ps
$end
$scope module tb_sol_streaming $end
$var wire 64 ! sum_out [63:0] $end
$var wire 1 " error $end
$var parameter 32 # DEPTH $end
$var parameter 32 $ DIGITS_PER_NUMBERBER $end
$var parameter 32 % FIFO_DEPTH $end
$var parameter 32 & NUM_NUMBERS $end
$var reg 1 ' clk $end
$var reg 4 ( digit_in [3:0] $end
$var reg 1 ) digit_valid $end
$var reg 1 * rst $end
$scope module dut $end
$var wire 1 ' clk $end
$var wire 4 + digit_in [3:0] $end
$var wire 1 ) digit_valid $end
$var wire 1 , pop_cond $end
$var wire 1 * rst $end
$var wire 64 - sum_out [63:0] $end
$var wire 1 . fifo_full $end
$var wire 1 / fifo_empty $end
$var wire 1 0 feasible $end
$var wire 1 1 can_pop $end
$var wire 1 2 better $end
$var parameter 32 3 DEPTH $end
$var parameter 32 4 DIGITS_PER_NUMBER $end
$var parameter 32 5 FIFO_DEPTH $end
$var reg 64 6 current_result [63:0] $end
$var reg 4 7 digit_count [3:0] $end
$var reg 4 8 digit_reg [3:0] $end
$var reg 1 " error $end
$var reg 7 9 fifo_count [6:0] $end
$var reg 6 : fifo_rd_ptr [5:0] $end
$var reg 6 ; fifo_wr_ptr [5:0] $end
$var reg 2 < result_idx [1:0] $end
$var reg 2 = sp [1:0] $end
$var reg 3 > state [2:0] $end
$var reg 64 ? sum_reg [63:0] $end
$scope begin $unm_blk_8 $end
$var reg 1 @ fifo_rd_en $end
$var reg 1 A fifo_wr_en $end
$upscope $end
$upscope $end
$scope begin $ivl_for_loop0 $end
$var integer 32 B i [31:0] $end
$upscope $end
$upscope $end
$enddefinitions $end
$comment Show the parameter values. $end
$dumpall
b1000000 5
b1111 4
b11 3
b11 &
b1000000 %
b1111 $
b11 #
$end
#0
$dumpvars
b0 B
xA
x@
b0 ?
b0 >
b0 =
b0 <
b0 ;
b0 :
b0 9
b0 8
b0 7
b0 6
x2
01
10
1/
0.
b0 -
0,
b0 +
1*
0)
b0 (
0'
0"
b0 !
$end
#5000
1'
#10000
0'
#15000
1'
#20000
0'
0*
#25000
0@
0A
1'
#30000
0'
#35000
0/
b1 9
b1 ;
1A
b1 B
1)
b11 (
b11 +
1'
#40000
0'
#45000
b1 >
b10 9
b10 ;
b10 B
b110 (
b110 +
1'
#50000
0'
#55000
b10 >
b1 :
b11 8
b11 ;
1@
b11 B
b100 (
b100 +
1'
#60000
0'
#65000
b11 >
b11 9
b100 ;
0@
b100 B
b111 (
b111 +
1'
#70000
0'
#75000
b1 >
b1 7
11
02
b1 =
b100 9
b101 ;
b101 B
b1000 (
b1000 +
1'
#80000
0'
#85000
1,
b10 >
b10 :
12
b110 8
b110 ;
1@
b110 B
b1001 (
b1001 +
1'
#90000
0'
#95000
b11 >
b101 9
b111 ;
0@
b111 B
b11 (
b11 +
1'
#100000
0'
#105000
0,
01
x2
b0 =
b110 9
b1000 ;
b1000 B
b110 (
b110 +
1'
#110000
0'
#115000
b1 >
b10 7
11
02
b1 =
b111 9
b1001 ;
b1001 B
b101 (
b101 +
1'
#120000
0'
#125000
b10 >
b11 :
b100 8
b1010 ;
1@
b1010 B
b1000 (
b1000 +
1'
#130000
0'
#135000
b11 >
b1000 9
b1011 ;
0@
b1011 B
b100 (
b100 +
1'
#140000
0'
#145000
b1 >
b11 7
b10 =
b1001 9
b1100 ;
b1100 B
b110 (
b110 +
1'
#150000
0'
#155000
1,
b10 >
b100 :
12
b111 8
b1101 ;
1@
b1101 B
b11 (
b11 +
1'
#160000
0'
#165000
b11 >
b1010 9
b1110 ;
0@
b1110 B
b100 (
b100 +
1'
#170000
0'
#175000
b1 =
b1011 9
b1111 ;
b1111 B
1'
#180000
0'
#185000
0,
01
x2
b0 =
b1100 9
b10000 ;
b10000 B
b1001 (
b1001 +
1'
#190000
0'
#195000
b1 >
b100 7
11
02
b1 =
b1101 9
b10001 ;
b10001 B
b1000 (
b1000 +
1'
#200000
0'
#205000
1,
b10 >
b101 :
12
b1000 8
b10010 ;
1@
b10010 B
b111 (
b111 +
1'
#210000
0'
#215000
b11 >
b1110 9
b10011 ;
0@
b10011 B
b110 (
b110 +
1'
#220000
0'
#225000
0,
01
x2
b0 =
b1111 9
b10100 ;
b10100 B
b101 (
b101 +
1'
#230000
0'
#235000
b1 >
b101 7
11
02
b1 =
b10000 9
b10101 ;
b10101 B
b100 (
b100 +
1'
#240000
0'
#245000
1,
b10 >
b110 :
12
b1001 8
b10110 ;
1@
b10110 B
b11 (
b11 +
1'
#250000
0'
#255000
b11 >
b10001 9
b10111 ;
0@
b10111 B
b10 (
b10 +
1'
#260000
0'
#265000
0,
01
x2
b0 =
b10010 9
b11000 ;
b11000 B
b1 (
b1 +
1'
#270000
0'
#275000
b1 >
b110 7
11
02
b1 =
b10011 9
b11001 ;
b11001 B
b0 (
b0 +
1'
#280000
0'
#285000
b10 >
b111 :
b11 8
b11010 ;
1@
b11010 B
b1 (
b1 +
1'
#290000
0'
#295000
b11 >
b10100 9
b11011 ;
0@
b11011 B
b10 (
b10 +
1'
#300000
0'
#305000
b1 >
b111 7
b10 =
b10101 9
b11100 ;
b11100 B
b11 (
b11 +
1'
#310000
0'
#315000
1,
b10 >
b1000 :
12
b110 8
b11101 ;
1@
b11101 B
b100 (
b100 +
1'
#320000
0'
#325000
b11 >
b10110 9
b11110 ;
0@
b11110 B
b101 (
b101 +
1'
#330000
0'
#335000
0,
02
b1 =
b10111 9
b11111 ;
b11111 B
b1 (
b1 +
1'
#340000
0'
#345000
b1 >
b1000 7
b10 =
b11000 9
b100000 ;
b100000 B
1'
#350000
0'
#355000
b10 >
b1001 :
b101 8
b100001 ;
1@
b100001 B
1'
#360000
0'
#365000
b11 >
b11001 9
b100010 ;
0@
b100010 B
b10 (
b10 +
1'
#370000
0'
#375000
b1 >
b1001 7
b11 =
b11010 9
b100011 ;
b100011 B
1'
#380000
0'
#385000
1,
b10 >
b1010 :
12
b1000 8
b100100 ;
1@
b100100 B
1'
#390000
0'
#395000
b11 >
b11011 9
b100101 ;
0@
b100101 B
b11 (
b11 +
1'
#400000
0'
#405000
b10 =
b11100 9
b100110 ;
b100110 B
1'
#410000
0'
#415000
0,
02
b1 =
b11101 9
b100111 ;
b100111 B
1'
#420000
0'
#425000
b1 >
b1010 7
b10 =
b11110 9
b101000 ;
b101000 B
b100 (
b100 +
1'
#430000
0'
#435000
b10 >
b1011 :
b100 8
b101001 ;
1@
b101001 B
1'
#440000
0'
#445000
b11 >
b11111 9
b101010 ;
0@
b101010 B
1'
#450000
0'
#455000
b1 >
b1011 7
b11 =
b100000 9
b101011 ;
b101011 B
b101 (
b101 +
1'
#460000
0'
#465000
1,
b10 >
b1100 :
12
b110 8
b101100 ;
1@
b101100 B
1'
#470000
0'
#475000
b11 >
b100001 9
b101101 ;
0@
b101101 B
1'
#480000
0'
#485000
0,
02
b10 =
0A
b0 (
b0 +
0)
1'
#490000
0'
#495000
b1 >
b1100 7
b11 =
1'
#500000
0'
#505000
b10 >
b100000 9
b1101 :
b11 8
1@
1'
#510000
0'
#515000
b11 >
0@
1'
#520000
0'
#525000
b1 >
b1101 7
1'
#530000
0'
#535000
b10 >
b11111 9
b1110 :
b100 8
1@
1'
#540000
0'
#545000
b11 >
0@
1'
#550000
0'
#555000
b1 >
b1110 7
1'
#560000
0'
#565000
b10 >
b11110 9
b1111 :
1@
1'
#570000
0'
#575000
b11 >
0@
1'
#580000
0'
#585000
b1 >
00
b1111 7
1'
#590000
0'
#595000
b100 >
1'
#600000
0'
#605000
b1 <
b1001 6
1'
#610000
0'
#615000
b10 <
b1100010 6
1'
#620000
0'
#625000
b11 <
b1111011010 6
1'
#630000
0'
#635000
b1 >
01
x2
b0 =
10
b0 7
b0 <
b0 6
b1111011010 !
b1111011010 -
b1111011010 ?
1'
#640000
0'
#645000
b10 >
b11101 9
b10000 :
b1001 8
1@
1'
#650000
0'
#655000
b11 >
0@
1'
#660000
0'
#665000
b1 >
b1 7
11
02
b1 =
1'
#670000
0'
#675000
b10 >
b11100 9
b10001 :
b1000 8
1@
1'
#680000
0'
#685000
b11 >
0@
1'
#690000
0'
#695000
b1 >
b10 7
b10 =
1'
#700000
0'
#705000
b10 >
b11011 9
b10010 :
b111 8
1@
1'
#710000
0'
#715000
b11 >
0@
1'
#720000
0'
#725000
b1 >
b11 7
b11 =
1'
#730000
0'
#735000
b10 >
b11010 9
b10011 :
b110 8
1@
1'
#740000
0'
#745000
b11 >
0@
1'
#750000
0'
#755000
b1 >
b100 7
1'
#760000
0'
#765000
b10 >
b11001 9
b10100 :
b101 8
1@
1'
#770000
0'
#775000
b11 >
0@
1'
#780000
0'
#785000
b1 >
b101 7
1'
#790000
0'
#795000
b10 >
b11000 9
b10101 :
b100 8
1@
1'
#800000
0'
#805000
b11 >
0@
1'
#810000
0'
#815000
b1 >
b110 7
1'
#820000
0'
#825000
b10 >
b10111 9
b10110 :
b11 8
1@
1'
#830000
0'
#835000
b11 >
0@
1'
#840000
0'
#845000
b1 >
b111 7
1'
#850000
0'
#855000
b10 >
b10110 9
b10111 :
b10 8
1@
1'
#860000
0'
#865000
b11 >
0@
1'
#870000
0'
#875000
b1 >
b1000 7
1'
#880000
0'
#885000
b10 >
b10101 9
b11000 :
b1 8
1@
1'
#890000
0'
#895000
b11 >
0@
1'
#900000
0'
#905000
b1 >
b1001 7
1'
#910000
0'
#915000
b10 >
b10100 9
b11001 :
b0 8
1@
1'
#920000
0'
#925000
b11 >
0@
1'
#930000
0'
#935000
b1 >
b1010 7
1'
#940000
0'
#945000
b10 >
b10011 9
b11010 :
b1 8
1@
1'
#950000
0'
#955000
b11 >
0@
1'
#960000
0'
#965000
b1 >
b1011 7
1'
#970000
0'
#975000
b10 >
b10010 9
b11011 :
b10 8
1@
1'
#980000
0'
#985000
b11 >
0@
1'
#990000
0'
#995000
b1 >
b1100 7
1'
#1000000
0'
#1005000
b10 >
b10001 9
b11100 :
b11 8
1@
1'
#1010000
0'
#1015000
b11 >
0@
1'
#1020000
0'
#1025000
b1 >
b1101 7
1'
#1030000
0'
#1035000
b10 >
b10000 9
b11101 :
b100 8
1@
1'
#1040000
0'
#1045000
b11 >
0@
1'
#1050000
0'
#1055000
b1 >
b1110 7
1'
#1060000
0'
#1065000
b10 >
b1111 9
b11110 :
b101 8
1@
1'
#1070000
0'
#1075000
b11 >
0@
1'
#1080000
0'
#1085000
b1 >
00
b1111 7
1'
#1090000
0'
#1095000
b100 >
1'
#1100000
0'
#1105000
b1 <
b1001 6
1'
#1110000
0'
#1115000
b10 <
b1100010 6
1'
#1120000
0'
#1125000
b11 <
b1111011011 6
1'
#1130000
0'
#1135000
b1 >
01
x2
b0 =
10
b0 7
b0 <
b0 6
b11110110101 !
b11110110101 -
b11110110101 ?
1'
#1140000
0'
#1145000
b10 >
b1110 9
b11111 :
b1 8
1@
1'
#1150000
0'
#1155000
b11 >
0@
1'
#1160000
0'
#1165000
b1 >
b1 7
11
02
b1 =
1'
#1170000
0'
#1175000
b10 >
b1101 9
b100000 :
1@
1'
#1180000
0'
#1185000
b11 >
0@
1'
#1190000
0'
#1195000
b1 >
b10 7
b10 =
1'
#1200000
0'
#1205000
b10 >
b1100 9
b100001 :
1@
1'
#1210000
0'
#1215000
b11 >
0@
1'
#1220000
0'
#1225000
b1 >
b11 7
b11 =
1'
#1230000
0'
#1235000
1,
b10 >
b1011 9
b100010 :
12
b10 8
1@
1'
#1240000
0'
#1245000
b11 >
0@
1'
#1250000
0'
#1255000
b10 =
1'
#1260000
0'
#1265000
b1 =
1'
#1270000
0'
#1275000
0,
01
x2
b0 =
1'
#1280000
0'
#1285000
b1 >
b100 7
11
02
b1 =
1'
#1290000
0'
#1295000
b10 >
b1010 9
b100011 :
1@
1'
#1300000
0'
#1305000
b11 >
0@
1'
#1310000
0'
#1315000
b1 >
b101 7
b10 =
1'
#1320000
0'
#1325000
b10 >
b1001 9
b100100 :
1@
1'
#1330000
0'
#1335000
b11 >
0@
1'
#1340000
0'
#1345000
b1 >
b110 7
b11 =
1'
#1350000
0'
#1355000
1,
b10 >
b1000 9
b100101 :
12
b11 8
1@
1'
#1360000
0'
#1365000
b11 >
0@
1'
#1370000
0'
#1375000
b10 =
1'
#1380000
0'
#1385000
b1 =
1'
#1390000
0'
#1395000
0,
01
x2
b0 =
1'
#1400000
0'
#1405000
b1 >
b111 7
11
02
b1 =
1'
#1410000
0'
#1415000
b10 >
b111 9
b100110 :
1@
1'
#1420000
0'
#1425000
b11 >
0@
1'
#1430000
0'
#1435000
b1 >
b1000 7
b10 =
1'
#1440000
0'
#1445000
b10 >
b110 9
b100111 :
1@
1'
#1450000
0'
#1455000
b11 >
0@
1'
#1460000
0'
#1465000
b1 >
b1001 7
b11 =
1'
#1470000
0'
#1475000
1,
b10 >
b101 9
b101000 :
12
b100 8
1@
1'
#1480000
0'
#1485000
b11 >
0@
1'
#1490000
0'
#1495000
b10 =
1'
#1500000
0'
#1505000
b1 =
1'
#1510000
0'
#1515000
0,
01
x2
b0 =
1'
#1520000
0'
#1525000
b1 >
b1010 7
11
02
b1 =
1'
#1530000
0'
#1535000
b10 >
b100 9
b101001 :
1@
1'
#1540000
0'
#1545000
b11 >
0@
1'
#1550000
0'
#1555000
b1 >
b1011 7
b10 =
1'
#1560000
0'
#1565000
b10 >
b11 9
b101010 :
1@
1'
#1570000
0'
#1575000
b11 >
0@
1'
#1580000
0'
#1585000
b1 >
b1100 7
b11 =
1'
#1590000
0'
#1595000
1,
b10 >
b10 9
b101011 :
12
b101 8
1@
1'
#1600000
0'
#1605000
b11 >
0@
1'
#1610000
0'
#1615000
b10 =
1'
#1620000
0'
#1625000
b1 =
1'
#1630000
0'
#1635000
0,
01
x2
00
b0 =
1'
#1640000
0'
#1645000
b1 >
b1101 7
11
02
00
b1 =
1'
#1650000
0'
#1655000
b10 >
b1 9
b101100 :
1@
1'
#1660000
0'
#1665000
b11 >
0@
1'
#1670000
0'
#1675000
b1 >
b1110 7
00
b10 =
1'
#1680000
0'
#1685000
b10 >
1/
b0 9
b101101 :
1@
1'
#1690000
0'
#1695000
b11 >
0@
1'
#1700000
0'
#1705000
b1 >
b1111 7
00
b11 =
1'
#1710000
0'
#1715000
b100 >
1'
#1720000
0'
#1725000
b1 <
b101 6
1'
#1730000
0'
#1735000
b10 <
b110111 6
1'
#1740000
0'
#1745000
b11 <
b1000101011 6
1'
#1750000
0'
#1755000
b0 >
01
x2
b0 =
10
b0 7
b0 <
b0 6
b100111100000 !
b100111100000 -
b100111100000 ?
1'
