Advent of FPGA (Verilog or SystemVerilog)/day-1/src/testbenches/sol_test/sol_tb.vcd
$date
	Mon Dec 15 22:26:41 2025
$end
$version
	Icarus Verilog
$end
$timescale
	1ps
$end
$scope module aoc_day1_tb $end
$var wire 32 ! zero_crossings [31:0] $end
$var wire 32 " zero_count [31:0] $end
$var wire 8 # curr_pos_op [7:0] $end
$var reg 1 $ clk $end
$var reg 32 % data_in [31:0] $end
$var reg 1 & dir_r $end
$var reg 1 ' rst $end
$scope module sol_module $end
$var wire 1 ( _11 $end
$var wire 32 ) _5 [31:0] $end
$var wire 1 * _7 $end
$var wire 1 + _9 $end
$var wire 1 $ clk $end
$var wire 8 , curr_pos_op [7:0] $end
$var wire 1 & dir_r $end
$var wire 4 - dir_r_reg [3:0] $end
$var wire 32 . in_data [31:0] $end
$var wire 1 ' rst $end
$var wire 32 / zero_count [31:0] $end
$var wire 32 0 zero_crossings [31:0] $end
$var wire 32 1 _17 [31:0] $end
$var wire 8 2 _16 [7:0] $end
$var wire 4 3 _15 [3:0] $end
$var wire 32 4 _14 [31:0] $end
$var wire 76 5 _13 [75:0] $end
$scope module top $end
$var wire 32 6 _1 [31:0] $end
$var wire 1 7 _11 $end
$var wire 1 8 _13 $end
$var wire 4 9 _14 [3:0] $end
$var wire 8 : _15 [7:0] $end
$var wire 32 ; _16 [31:0] $end
$var wire 32 < _18 [31:0] $end
$var wire 64 = _22 [63:0] $end
$var wire 4 > _26 [3:0] $end
$var wire 8 ? _29 [7:0] $end
$var wire 8 @ _33 [7:0] $end
$var wire 1 A _35 $end
$var wire 1 B _36 $end
$var wire 9 C _37 [8:0] $end
$var wire 1 D _43 $end
$var wire 32 E _46 [31:0] $end
$var wire 1 F _59 $end
$var wire 32 G _6 [31:0] $end
$var wire 8 H _60 [7:0] $end
$var wire 8 I _7 [7:0] $end
$var wire 1 J _9 $end
$var wire 1 ( clk $end
$var wire 8 K curr_pos_op [7:0] $end
$var wire 1 * dir_r $end
$var wire 4 L dir_r_reg [3:0] $end
$var wire 1 M gnd $end
$var wire 32 N in_data [31:0] $end
$var wire 1 + rst $end
$var wire 32 O zero_count [31:0] $end
$var wire 32 P zero_crossings [31:0] $end
$var wire 32 Q _69 [31:0] $end
$var wire 32 R _68 [31:0] $end
$var wire 1 S _64 $end
$var wire 8 T _62 [7:0] $end
$var wire 8 U _61 [7:0] $end
$var wire 1 V _58 $end
$var wire 8 W _56 [7:0] $end
$var wire 8 X _55 [7:0] $end
$var wire 8 Y _54 [7:0] $end
$var wire 8 Z _52 [7:0] $end
$var wire 4 [ _51 [3:0] $end
$var wire 3 \ _50 [2:0] $end
$var wire 8 ] _49 [7:0] $end
$var wire 32 ^ _48 [31:0] $end
$var wire 32 _ _47 [31:0] $end
$var wire 1 ` _44 $end
$var wire 1 a _42 $end
$var wire 9 b _41 [8:0] $end
$var wire 9 c _40 [8:0] $end
$var wire 9 d _39 [8:0] $end
$var wire 1 e _34 $end
$var wire 1 f _32 $end
$var wire 8 g _31 [7:0] $end
$var wire 1 h _28 $end
$var wire 32 i _25 [31:0] $end
$var wire 32 j _24 [31:0] $end
$var wire 128 k _23 [127:0] $end
$var wire 64 l _21 [63:0] $end
$var reg 32 m _19 [31:0] $end
$var reg 4 n _27 [3:0] $end
$var reg 8 o _30 [7:0] $end
$var reg 32 p _66 [31:0] $end
$scope module mod100 $end
$var wire 64 q _16 [63:0] $end
$var wire 96 r _18 [95:0] $end
$var wire 1 s _2 $end
$var wire 32 t _23 [31:0] $end
$var wire 32 u _27 [31:0] $end
$var wire 1 v _4 $end
$var wire 32 w _6 [31:0] $end
$var wire 1 7 clk $end
$var wire 32 x data_in [31:0] $end
$var wire 8 y rot_by [7:0] $end
$var wire 1 J rst $end
$var wire 8 z _29 [7:0] $end
$var wire 32 { _26 [31:0] $end
$var wire 64 | _25 [63:0] $end
$var wire 64 } _24 [63:0] $end
$var wire 32 ~ _20 [31:0] $end
$var wire 96 !" _17 [95:0] $end
$var wire 64 "" _15 [63:0] $end
$var reg 32 #" _10 [31:0] $end
$var reg 32 $" _12 [31:0] $end
$var reg 32 %" _14 [31:0] $end
$var reg 96 &" _19 [95:0] $end
$var reg 32 '" _22 [31:0] $end
$var reg 32 (" _28 [31:0] $end
$upscope $end
$upscope $end
$upscope $end
$upscope $end
$enddefinitions $end
$comment Show the parameter values. $end
$dumpall
$end
#0
$dumpvars
bx ("
bx '"
bx &"
bx %"
bx $"
bx #"
b0xxxxxxxxxxxxxxxxxxxxxxxxxxxxxxxx ""
bx !"
bx ~
bx }
bx |
bx {
bx z
bx y
b0 x
b0 w
0v
b0 u
b1100100 t
0s
b0 r
b10100011110101110000101001 q
bx p
b110010 o
bx n
bx m
b0 l
b0 k
b0 j
bx i
xh
bx g
xf
0e
b110010 d
b0xxxxxxxx c
bx b
xa
x`
b0x _
bx ^
bx ]
bx \
bx0 [
bx Z
bx Y
bx X
bx W
xV
bx U
bx T
0S
bx R
bx Q
bx P
bx O
b0 N
0M
bx L
b110010 K
0J
bx I
b1100100 H
b0 G
xF
b1 E
xD
b1100100 C
xB
1A
b0 @
b110010 ?
b0 >
b10100011110101110000101000 =
b0 <
bx ;
bx :
bx0 9
08
07
bx 6
bx00110010xxxxxxxxxxxxxxxxxxxxxxxxxxxxxxxx 5
bx 4
bx 3
b110010 2
bx 1
bx 0
bx /
b0 .
bx -
b110010 ,
0+
0*
b0 )
0(
0'
0&
b0 %
0$
b110010 #
bx "
bx !
$end
#5000
b0 6
b0 ^
b0 _
0`
0B
1F
b110010 :
b110010 T
0D
0f
0V
b110010 U
b10010110 W
b0 ~
b0 {
0a
b110010 b
b0 c
b110010 g
b110010 X
b10010110 Y
b110010 Z
b0 I
b0 ]
b0 y
b0 z
b0 !
b0 0
b0 4
b0 9
b0 [
b0 \
0h
b0 -
b0 3
b0 ;
b0 Q
b0 "
b0 /
b0 1
b0 &"
b0 |
b0 }
b0 '"
b0 !"
b0 #"
b0 $"
b0 ""
b0 %"
b0 ("
b0 i
b0 P
b0 m
b0 L
b0 n
b1 R
b11001000000000000000000000000000000000 5
b0 O
b0 p
1s
1J
1+
1'
1v
17
1(
1$
#10000
0v
07
0(
0$
#15000
0s
0J
0+
0'
1v
17
1(
1$
#20000
0v
07
0(
0$
#25000
b1100110011001100110011001101 !"
b101 #"
b1100110011001100110011001000 k
b101 l
b101 w
b101 G
b101 x
b101 )
b101 N
b101 %
b101 .
1v
17
1(
1$
#30000
0v
07
0(
0$
#35000
b101 $"
b1011110101110000101000111101101 !"
b100101 #"
b1100110011001100110011001101 &"
b1011110101110000101000111001000 k
b100101 l
b100101 w
b100101 G
b100101 x
b100101 )
b100101 N
b100101 %
b100101 .
1v
17
1(
1$
#40000
0v
07
0(
0$
#45000
b101 {
b1011110101110000101000111101101 &"
b1010001111010111000010100100000 !"
b100000 #"
b100101 $"
b101 |
b101 ""
b101 %"
b1010001111010111000010100000000 k
b100000 l
b100000 w
b100000 G
b100000 x
b100000 )
b100000 N
b100000 %
b100000 .
1v
17
1(
1$
#50000
0v
07
0(
0$
#55000
b101101 :
b101101 T
b101101 U
b10010001 W
b110111 b
b101 c
b101101 g
b110111 X
b10010001 Y
b101101 Z
b101 I
b101 ]
b101 y
b101 z
b100101 {
b1 \
b1 -
b1 3
b101 ("
b100101 |
b100101 ""
b100101 %"
b100000 $"
b1100110011001100110011001101 !"
b101 #"
b1010001111010111000010100100000 &"
b10011001000000000000000000000000000000000 5
b1 L
b1 n
b1100110011001100110011001000 k
b101 l
b101 w
b101 G
b101 x
b101 )
b101 N
b101 %
b101 .
b11 9
b11 [
18
1*
1&
1v
17
1(
1$
#60000
0v
07
0(
0$
#65000
b1000 :
b1000 T
b100000 {
b100101 c
b100101 I
b100101 ]
b100101 y
b100101 z
b1000 U
b1101100 W
b101101 #
b101101 ,
b101101 2
b10 \
b10 -
b10 3
b1100110011001100110011001101 &"
b1011100001010001111010111000100 !"
b100100 #"
b101 $"
b100000 |
b100000 ""
b100000 %"
b100101 ("
b1010010 b
b101101 d
b1000 g
b1010010 X
b1101100 Y
b1000 Z
b101101 K
b101101 o
b100010110100000000000000000000000000000000 5
b10 L
b10 n
b1011100001010001111010110100000 k
b100100 l
b100100 w
b100100 G
b100100 x
b100100 )
b100100 N
b100100 %
b100100 .
b100 9
b100 [
08
0*
0&
1v
17
1(
1$
#70000
0v
07
0(
0$
#75000
b1 6
b1 ^
b1 _
1`
1B
0F
b1001100 :
b1001100 T
b100000 c
b100000 I
b100000 ]
b100000 y
b100000 z
b101 {
1f
1V
b11101000 U
b1001100 W
b1000 #
b1000 ,
b1000 2
b1000 9
b1000 [
b100 \
b100 -
b100 3
b100000 ("
b101 |
b101 ""
b101 %"
b100100 $"
b1001010001111010111000010100101 !"
b11101 #"
b1011100001010001111010111000100 &"
b101000 b
b1000 d
b11101000 g
b101000 X
b1001100 Y
b11101000 Z
b1000 K
b1000 o
b1000000100000000000000000000000000000000000 5
b100 L
b100 n
b1001010001111010111000010001000 k
b11101 l
b11101 w
b11101 G
b11101 x
b11101 )
b11101 N
b11101 %
b11101 .
1v
17
1(
1$
#80000
0v
07
0(
0$
#85000
b0 _
0`
0B
0F
b1010001 :
b1010001 T
b100100 {
b101 c
b101 I
b101 ]
b101 y
b101 z
0D
0f
1V
b11101101 U
b1010001 W
b1001100 #
b1001100 ,
b1001100 2
b1 !
b1 0
b1 4
b1 \
1h
b1001 -
b1001 3
b1001010001111010111000010100101 &"
b100001010001111010111000010101 !"
b1101 #"
b11101 $"
b100100 |
b100100 ""
b100100 %"
b101 ("
0a
b1010001 b
b1001100 d
b1000111 g
b1010001 X
b10101011 Y
b1000111 Z
b1001100 K
b1001100 o
b1 6
b1 ^
b1 i
b1 P
b1 m
b110010100110000000000000000000000000000000000 5
b1001 L
b1001 n
b100001010001111010111000001000 k
b1101 l
b1101 w
b1101 G
b1101 x
b1101 )
b1101 N
b1101 %
b1101 .
b11 9
b11 [
18
1*
1&
1v
17
1(
1$
#90000
0v
07
0(
0$
#95000
1D
1F
b101101 :
b101101 T
1a
b100100 c
b100100 I
b100100 ]
b100100 y
b100100 z
b11101 {
0V
b101101 U
b10010001 W
b1010001 #
b1010001 ,
b1010001 2
b111 9
b111 [
b11 \
0h
b11 -
b11 3
b100100 ("
b11101 |
b11101 ""
b11101 %"
b1101 $"
b101011100001010001111010111001 !"
b10001 #"
b100001010001111010111000010101 &"
b1110101 b
b1010001 d
b101101 g
b1110101 X
b10010001 Y
b101101 Z
b1010001 K
b1010001 o
b100110101000100000000000000000000000000000000 5
b11 L
b11 n
b101011100001010001111010101000 k
b10001 l
b10001 w
b10001 G
b10001 x
b10001 )
b10001 N
b10001 %
b10001 .
1v
17
1(
1$
#100000
0v
07
0(
0$
#105000
b10000 :
b10000 T
b1101 {
b11101 c
b11101 I
b11101 ]
b11101 y
b11101 z
0D
b10000 U
b1110100 W
b101101 #
b101101 ,
b101101 2
b110 \
b110 -
b110 3
b101011100001010001111010111001 &"
b110000101000111101011100001011 !"
b10011 #"
b10001 $"
b1101 |
b1101 ""
b1101 %"
b11101 ("
0a
b1001010 b
b101101 d
b10000 g
b1001010 X
b1110100 Y
b10000 Z
b101101 K
b101101 o
b101100010110100000000000000000000000000000000 5
b110 L
b110 n
b110000101000111101011011111000 k
b10011 l
b10011 w
b10011 G
b10011 x
b10011 )
b10011 N
b10011 %
b10011 .
b1100 9
b1100 [
08
0*
0&
1v
17
1(
1$
#110000
0v
07
0(
0$
#115000
0B
0F
b11101 :
b11101 T
b1101 c
b1101 I
b1101 ]
b1101 y
b1101 z
b10001 {
0f
1V
b10111001 U
b11101 W
b10000 #
b10000 ,
b10000 2
b1000 9
b1000 [
b100 \
1h
b1100 -
b1100 3
b1101 ("
b10001 |
b10001 ""
b10001 %"
b10011 $"
b1010111000010100011110101110010 !"
b100010 #"
b110000101000111101011100001011 &"
b11101 b
b10000 d
b11 g
b11101 X
b1100111 Y
b11 Z
b10000 K
b10000 o
b111000001000000000000000000000000000000000000 5
b1100 L
b1100 n
b1010111000010100011110101010000 k
b100010 l
b100010 w
b100010 G
b100010 x
b100010 )
b100010 N
b100010 %
b100010 .
1v
17
1(
1$
#120000
0v
07
0(
0$
#125000
b101110 :
b101110 T
b10011 {
b10001 c
b10001 I
b10001 ]
b10001 y
b10001 z
b11001010 U
b101110 W
b11101 #
b11101 ,
b11101 2
b1 \
b1001 -
b1001 3
b1010111000010100011110101110010 &"
b101000111101011100001010010 !"
b10 #"
b100010 $"
b10011 |
b10011 ""
b10011 %"
b10001 ("
b101110 b
b11101 d
b1100 g
b101110 X
b1110000 Y
b1100 Z
b11101 K
b11101 o
b110010001110100000000000000000000000000000000 5
b1001 L
b1001 n
b101000111101011100001010000 k
b10 l
b10 w
b10 G
b10 x
b10 )
b10 N
b10 %
b10 .
b11 9
b11 [
18
1*
1&
1v
17
1(
1$
#130000
0v
07
0(
0$
#135000
1F
b11011 :
b11011 T
b10011 c
b10011 I
b10011 ]
b10011 y
b10011 z
b100010 {
0V
b11011 U
b1111111 W
b101110 #
b101110 ,
b101110 2
b111 9
b111 [
b11 \
0h
b11 -
b11 3
b10011 ("
b100010 |
b100010 ""
b100010 %"
b10 $"
b10111000010100011110101110001 !"
b1001 #"
b101000111101011100001010010 &"
b1000001 b
b101110 d
b11011 g
b1000001 X
b1111111 Y
b11011 Z
b101110 K
b101110 o
b100110010111000000000000000000000000000000000 5
b11 L
b11 n
b10111000010100011110101101000 k
b1001 l
b1001 w
b1001 G
b1001 x
b1001 )
b1001 N
b1001 %
b1001 .
1v
17
1(
1$
#140000
0v
07
0(
0$
#145000
b10 6
b10 ^
b1 _
1`
1B
0F
1f
1V
b1011101 :
b1011101 T
b10 {
b100010 c
b100010 I
b100010 ]
b100010 y
b100010 z
b11111001 U
b1011101 W
b11011 #
b11011 ,
b11011 2
b1111 9
b1111 [
b111 \
b111 -
b111 3
b10111000010100011110101110001 &"
b10100011110101110000101001 !"
b1 #"
b1001 $"
b10 |
b10 ""
b10 %"
b100010 ("
b111101 b
b11011 d
b11111001 g
b111101 X
b1011101 Y
b11111001 Z
b11011 K
b11011 o
b101110001101100000000000000000000000000000000 5
b111 L
b111 n
b10100011110101110000101000 k
b1 l
b1 w
b1 G
b1 x
b1 )
b1 N
b1 %
b1 .
1v
17
1(
1$
#150000
0v
07
0(
0$
#155000
b0 _
0`
0B
0F
b1011111 :
b1011111 T
b10 c
b10 I
b10 ]
b10 y
b10 z
b1001 {
0D
0f
1V
b11111011 U
b1011111 W
b1011101 #
b1011101 ,
b1011101 2
1h
b1111 -
b1111 3
b10 !
b10 0
b10 4
b10 ("
b1001 |
b1001 ""
b1001 %"
b1 $"
b11100001010001111010111000011 !"
b1011 #"
b10100011110101110000101001 &"
0a
b1011111 b
b1011101 d
b1011011 g
b1011111 X
b10111111 Y
b1011011 Z
b1011101 K
b1011101 o
b1111 L
b1111 n
b10 6
b10 ^
b10 i
b1011110101110100000000000000000000000000000000 5
b10 P
b10 m
b11100001010001111010110111000 k
b1011 l
b1011 w
b1011 G
b1011 x
b1011 )
b1011 N
b1011 %
b1011 .
1v
17
1(
1$
#160000
0v
07
0(
0$
#165000
b11 6
b11 ^
b1 _
1`
1F
1D
0V
b100 :
b100 T
b1 {
1a
b1001 c
b1001 I
b1001 ]
b1001 y
b1001 z
b100 U
b1101000 W
b1011111 #
b1011111 ,
b1011111 2
b11100001010001111010111000011 &"
b1011001100110011001100110011011 !"
b100011 #"
b1011 $"
b1 |
b1 ""
b1 %"
b1001 ("
b1101000 b
b1011111 d
b1010110 g
b1101000 X
b10111010 Y
b1010110 Z
b1011110101111100000000000000000000000000000000 5
b1011111 K
b1011111 o
b1011001100110011001100101111000 k
b100011 l
b100011 w
b100011 G
b100011 x
b100011 )
b100011 N
b100011 %
b100011 .
1v
17
1(
1$
#170000
0v
07
0(
0$
#175000
b0 _
0`
0B
0F
b101 :
b101 T
b1 c
b1 I
b1 ]
b1 y
b1 z
b1011 {
0D
0f
1V
b10100001 U
b101 W
b100 #
b100 ,
b100 2
b11 !
b11 0
b11 4
b1 ("
b1011 |
b1011 ""
b1011 %"
b100011 $"
b1000010100011110101110000101010 !"
b11010 #"
b1011001100110011001100110011011 &"
0a
b101 b
b100 d
b11 g
b101 X
b1100111 Y
b11 Z
b100 K
b100 o
b11 6
b11 ^
b11 i
b1111110000010000000000000000000000000000000000 5
b11 P
b11 m
b1000010100011110101110000010000 k
b11010 l
b11010 w
b11010 G
b11010 x
b11010 )
b11010 N
b11010 %
b11010 .
1v
17
1(
1$
#180000
0v
07
0(
0$
#185000
1B
1f
b10000 :
b10000 T
b100011 {
b1011 c
b1011 I
b1011 ]
b1011 y
b1011 z
b10101100 U
b10000 W
b101 #
b101 ,
b101 2
b110 \
b1110 -
b1110 3
b1000010100011110101110000101010 &"
b110011001100110011001100110100 !"
b10100 #"
b11010 $"
b100011 |
b100011 ""
b100011 %"
b1011 ("
b10000 b
b101 d
b11111010 g
b10000 X
b1011110 Y
b11111010 Z
b101 K
b101 o
b1111100000010100000000000000000000000000000000 5
b1110 L
b1110 n
b110011001100110011001100100000 k
b10100 l
b10100 w
b10100 G
b10100 x
b10100 )
b10100 N
b10100 %
b10100 .
b1100 9
b1100 [
08
0*
0&
1v
17
1(
1$
#190000
0v
07
0(
0$
#195000
1B
b110011 :
b110011 T
b100011 c
b100011 I
b100011 ]
b100011 y
b100011 z
b11010 {
1f
b11001111 U
b110011 W
b10000 #
b10000 ,
b10000 2
b101 \
b1101 -
b1101 3
b100011 ("
b11010 |
b11010 ""
b11010 %"
b10100 $"
b110000101000111101011100001011 !"
b10011 #"
b110011001100110011001100110100 &"
b110011 b
b10000 d
b11101101 g
b110011 X
b1010001 Y
b11101101 Z
b10000 K
b10000 o
b1111010001000000000000000000000000000000000000 5
b1101 L
b1101 n
b110000101000111101011011111000 k
b10011 l
b10011 w
b10011 G
b10011 x
b10011 )
b10011 N
b10011 %
b10011 .
b1011 9
b1011 [
18
1*
1&
1v
17
1(
1$
#200000
0v
07
0(
0$
#205000
0B
b1001101 :
b1001101 T
b10100 {
b11010 c
b11010 I
b11010 ]
b11010 y
b11010 z
0f
b11101001 U
b1001101 W
b110011 #
b110011 ,
b110011 2
b10 \
b1010 -
b1010 3
b110000101000111101011100001011 &"
b1110000101000111101011100001100 !"
b101100 #"
b10011 $"
b10100 |
b10100 ""
b10100 %"
b11010 ("
b1001101 b
b110011 d
b11001 g
b1001101 X
b1111101 Y
b11001 Z
b110011 K
b110011 o
b1110100011001100000000000000000000000000000000 5
b1010 L
b1010 n
b1110000101000111101011011100000 k
b101100 l
b101100 w
b101100 G
b101100 x
b101100 )
b101100 N
b101100 %
b101100 .
b100 9
b100 [
08
0*
0&
1v
17
1(
1$
#210000
0v
07
0(
0$
#215000
1F
b111001 :
b111001 T
b10100 c
b10100 I
b10100 ]
b10100 y
b10100 z
b10011 {
0D
0V
b111001 U
b10011101 W
b1001101 #
b1001101 ,
b1001101 2
b1000 9
b1000 [
b100 \
0h
b100 -
b100 3
b10100 ("
b10011 |
b10011 ""
b10011 %"
b101100 $"
b1000101000111101011100001010011 !"
b11011 #"
b1110000101000111101011100001100 &"
0a
b1100001 b
b1001101 d
b111001 g
b1100001 X
b10011101 Y
b111001 Z
b1001101 K
b1001101 o
b1101000100110100000000000000000000000000000000 5
b100 L
b100 n
b1000101000111101011100000111000 k
b11011 l
b11011 w
b11011 G
b11011 x
b11011 )
b11011 N
b11011 %
b11011 .
1v
17
1(
1$
#220000
0v
07
0(
0$
#225000
0F
b1001100 :
b1001100 T
b101100 {
b10011 c
b10011 I
b10011 ]
b10011 y
b10011 z
1V
b11101000 U
b1001100 W
b111001 #
b111001 ,
b111001 2
b1 \
1h
b1001 -
b1001 3
b1000101000111101011100001010011 &"
b11001100110011001100110011010 !"
b1010 #"
b11011 $"
b101100 |
b101100 ""
b101100 %"
b10011 ("
b1001100 b
b111001 d
b100110 g
b1001100 X
b10001010 Y
b100110 Z
b111001 K
b111001 o
b1110010011100100000000000000000000000000000000 5
b1001 L
b1001 n
b11001100110011001100110010000 k
b1010 l
b1010 w
b1010 G
b1010 x
b1010 )
b1010 N
b1010 %
b1010 .
b11 9
b11 [
18
1*
1&
1v
17
1(
1$
#230000
0v
07
0(
0$
#235000
1D
1F
b100000 :
b100000 T
1a
b101100 c
b101100 I
b101100 ]
b101100 y
b101100 z
b11011 {
0V
b100000 U
b10000100 W
b1001100 #
b1001100 ,
b1001100 2
b10 \
0h
b10 -
b10 3
b101100 ("
b11011 |
b11011 ""
b11011 %"
b1010 $"
b100011110101110000101000111110 !"
b1110 #"
b11001100110011001100110011010 &"
b1111000 b
b1001100 d
b100000 g
b1111000 X
b10000100 Y
b100000 Z
b1001100 K
b1001100 o
b1100100100110000000000000000000000000000000000 5
b10 L
b10 n
b100011110101110000101000110000 k
b1110 l
b1110 w
b1110 G
b1110 x
b1110 )
b1110 N
b1110 %
b1110 .
b100 9
b100 [
08
0*
0&
1v
17
1(
1$
#240000
0v
07
0(
0$
#245000
b11 6
b11 ^
b0 _
0`
0B
1F
b101 :
b101 T
b1010 {
b11011 c
b11011 I
b11011 ]
b11011 y
b11011 z
0D
0f
0V
b101 U
b1101001 W
b100000 #
b100000 ,
b100000 2
b101 \
b101 -
b101 3
b100011110101110000101000111110 &"
b1101110000101000111101011100011 !"
b101011 #"
b1110 $"
b1010 |
b1010 ""
b1010 %"
b11011 ("
0a
b111011 b
b100000 d
b101 g
b111011 X
b1101001 Y
b101 Z
b100000 K
b100000 o
b1101010010000000000000000000000000000000000000 5
b101 L
b101 n
b1101110000101000111101010111000 k
b101011 l
b101011 w
b101011 G
b101011 x
b101011 )
b101011 N
b101011 %
b101011 .
b1011 9
b1011 [
18
1*
1&
1v
17
1(
1$
#250000
0v
07
0(
0$
#255000
1B
0F
b1111 :
b1111 T
b1010 c
b1010 I
b1010 ]
b1010 y
b1010 z
b1110 {
1f
1V
b10101011 U
b1111 W
b101 #
b101 ,
b101 2
b111 9
b111 [
b11 \
1h
b1011 -
b1011 3
b1010 ("
b1110 |
b1110 ""
b1110 %"
b101011 $"
b1011001100110011001100110011011 !"
b100011 #"
b1101110000101000111101011100011 &"
b1111 b
b101 d
b11111011 g
b1111 X
b1011111 Y
b11111011 Z
b101 K
b101 o
b1110110000010100000000000000000000000000000000 5
b1011 L
b1011 n
b1011001100110011001100101111000 k
b100011 l
b100011 w
b100011 G
b100011 x
b100011 )
b100011 N
b100011 %
b100011 .
1v
17
1(
1$
#260000
0v
07
0(
0$
#265000
b11 6
b11 ^
b0 _
0B
1F
b1 :
b1 T
0`
b101011 {
b1110 c
b1110 I
b1110 ]
b1110 y
b1110 z
0f
0V
b1 U
b1100101 W
b1111 #
b1111 ,
b1111 2
b110 \
0h
b110 -
b110 3
b1011001100110011001100110011011 &"
b1000000000000000000000000000001 !"
b11001 #"
b100011 $"
b101011 |
b101011 ""
b101011 %"
b1110 ("
b11101 b
b1111 d
b1 g
b11101 X
b1100101 Y
b1 Z
b1111 K
b1111 o
b1101100000111100000000000000000000000000000000 5
b110 L
b110 n
b111111111111111111111111101000 k
b11001 l
b11001 w
b11001 G
b11001 x
b11001 )
b11001 N
b11001 %
b11001 .
b1100 9
b1100 [
08
0*
0&
1v
17
1(
1$
#270000
0v
07
0(
0$
#275000
1B
0F
b101100 :
b101100 T
b101011 c
b101011 I
b101011 ]
b101011 y
b101011 z
b100011 {
1f
1V
b11001000 U
b101100 W
b1 #
b1 ,
b1 2
b1000 9
b1000 [
b100 \
1h
b1100 -
b1100 3
b101011 ("
b100011 |
b100011 ""
b100011 %"
b11001 $"
b1011001100110011001100110011011 !"
b100011 #"
b1000000000000000000000000000001 &"
b101100 b
b1 d
b11010110 g
b101100 X
b111010 Y
b11010110 Z
b1 K
b1 o
b1111000000000100000000000000000000000000000000 5
b1100 L
b1100 n
b1011001100110011001100101111000 k
b100011 l
b100011 w
b100011 G
b100011 x
b100011 )
b100011 N
b100011 %
b100011 .
1v
17
1(
1$
#280000
0v
07
0(
0$
#285000
0B
b1001111 :
b1001111 T
b11001 {
b100011 c
b100011 I
b100011 ]
b100011 y
b100011 z
0f
b11101011 U
b1001111 W
b101100 #
b101100 ,
b101100 2
b0 9
b0 [
b0 \
b1000 -
b1000 3
b1011001100110011001100110011011 &"
b10100011110101110000101001 !"
b1 #"
b100011 $"
b11001 |
b11001 ""
b11001 %"
b100011 ("
b1001111 b
b101100 d
b1001 g
b1001111 X
b1101101 Y
b1001 Z
b101100 K
b101100 o
b1110000010110000000000000000000000000000000000 5
b1000 L
b1000 n
b10100011110101110000101000 k
b1 l
b1 w
b1 G
b1 x
b1 )
b1 N
b1 %
b1 .
1v
17
1(
1$
#290000
0v
07
0(
0$
#295000
1F
b110110 :
b110110 T
b11001 c
b11001 I
b11001 ]
b11001 y
b11001 z
b100011 {
1D
0V
b110110 U
b10011010 W
b1001111 #
b1001111 ,
b1001111 2
b1 \
0h
b1 -
b1 3
b11001 ("
b100011 |
b100011 ""
b100011 %"
b1 $"
b1010111000010100011110101110010 !"
b100010 #"
b10100011110101110000101001 &"
1a
b1101000 b
b1001111 d
b110110 g
b1101000 X
b10011010 Y
b110110 Z
b1001111 K
b1001111 o
b1100010100111100000000000000000000000000000000 5
b1 L
b1 n
b1010111000010100011110101010000 k
b100010 l
b100010 w
b100010 G
b100010 x
b100010 )
b100010 N
b100010 %
b100010 .
b11 9
b11 [
18
1*
1&
1v
17
1(
1$
#300000
0v
07
0(
0$
#305000
b10011 :
b10011 T
b1 {
b100011 c
b100011 I
b100011 ]
b100011 y
b100011 z
0D
b10011 U
b1110111 W
b110110 #
b110110 ,
b110110 2
b10 \
b10 -
b10 3
b1010111000010100011110101110010 &"
b111101011100001010001111011 !"
b11 #"
b100010 $"
b1 |
b1 ""
b1 %"
b100011 ("
0a
b1011001 b
b110110 d
b10011 g
b1011001 X
b1110111 Y
b10011 Z
b110110 K
b110110 o
b1100100011011000000000000000000000000000000000 5
b10 L
b10 n
b111101011100001010001111000 k
b11 l
b11 w
b11 G
b11 x
b11 )
b11 N
b11 %
b11 .
b100 9
b100 [
08
0*
0&
1v
17
1(
1$
#310000
0v
07
0(
0$
#315000
b11 6
b11 ^
b0 _
0`
0B
1F
b10010 :
b10010 T
b1 c
b1 I
b1 ]
b1 y
b1 z
b100010 {
0f
0V
b10010 U
b1110110 W
b10011 #
b10011 ,
b10011 2
b101 \
b101 -
b101 3
b1 ("
b100010 |
b100010 ""
b100010 %"
b11 $"
b1000000000000000000000000000001 !"
b11001 #"
b111101011100001010001111011 &"
b10100 b
b10011 d
b10010 g
b10100 X
b1110110 Y
b10010 Z
b10011 K
b10011 o
b1101010001001100000000000000000000000000000000 5
b101 L
b101 n
b111111111111111111111111101000 k
b11001 l
b11001 w
b11001 G
b11001 x
b11001 )
b11001 N
b11001 %
b11001 .
b1011 9
b1011 [
18
1*
1&
1v
17
1(
1$
#320000
0v
07
0(
0$
#325000
1B
1f
0F
b110100 :
b110100 T
b11 {
b100010 c
b100010 I
b100010 ]
b100010 y
b100010 z
1V
b11010000 U
b110100 W
b10010 #
b10010 ,
b10010 2
b111 9
b111 [
b11 \
1h
b1011 -
b1011 3
b1000000000000000000000000000001 &"
b10001111010111000010100011111 !"
b111 #"
b11001 $"
b11 |
b11 ""
b11 %"
b100010 ("
b110100 b
b10010 d
b11110000 g
b110100 X
b1010100 Y
b11110000 Z
b10010 K
b10010 o
b1110110001001000000000000000000000000000000000 5
b1011 L
b1011 n
b10001111010111000010100011000 k
b111 l
b111 w
b111 G
b111 x
b111 )
b111 N
b111 %
b111 .
1v
17
1(
1$
#330000
0v
07
0(
0$
#335000
b11 6
b11 ^
b0 _
0B
1F
b110001 :
b110001 T
0`
b11 c
b11 I
b11 ]
b11 y
b11 z
b11001 {
0f
0V
b110001 U
b10010101 W
b110100 #
b110100 ,
b110100 2
b110 \
0h
b110 -
b110 3
b11 ("
b11001 |
b11001 ""
b11001 %"
b111 $"
b1110000101000111101011100001100 !"
b101100 #"
b10001111010111000010100011111 &"
b110111 b
b110100 d
b110001 g
b110111 X
b10010101 Y
b110001 Z
b110100 K
b110100 o
b1101100011010000000000000000000000000000000000 5
b110 L
b110 n
b1110000101000111101011011100000 k
b101100 l
b101100 w
b101100 G
b101100 x
b101100 )
b101100 N
b101100 %
b101100 .
b1100 9
b1100 [
08
0*
0&
1v
17
1(
1$
#340000
0v
07
0(
0$
#345000
0F
b1001010 :
b1001010 T
b111 {
b11001 c
b11001 I
b11001 ]
b11001 y
b11001 z
1V
b11100110 U
b1001010 W
b110001 #
b110001 ,
b110001 2
b101 \
1h
b1101 -
b1101 3
b1110000101000111101011100001100 &"
b11100001010001111010111000011 !"
b1011 #"
b101100 $"
b111 |
b111 ""
b111 %"
b11001 ("
b1001010 b
b110001 d
b11000 g
b1001010 X
b1111100 Y
b11000 Z
b110001 K
b110001 o
b1111010011000100000000000000000000000000000000 5
b1101 L
b1101 n
b11100001010001111010110111000 k
b1011 l
b1011 w
b1011 G
b1011 x
b1011 )
b1011 N
b1011 %
b1011 .
b1011 9
b1011 [
18
1*
1&
1v
17
1(
1$
#350000
0v
07
0(
0$
