day-1/hardcaml/verilog/mod100_tb.vcd
$date
	Thu Dec 11 02:24:53 2025
$end
$version
	Icarus Verilog
$end
$timescale
	1ps
$end
$scope module mod100_tb $end
$var wire 8 ! rot_by [7:0] $end
$var reg 1 " clk $end
$var reg 32 # in_data [31:0] $end
$var reg 1 $ rst $end
$scope module uut $end
$var wire 32 % _2 [31:0] $end
$var wire 1 & _4 $end
$var wire 1 ' _6 $end
$var wire 8 ( _7 [7:0] $end
$var wire 1 " clk $end
$var wire 32 ) data_in [31:0] $end
$var wire 8 * rot_by [7:0] $end
$var wire 1 $ rst $end
$var wire 8 + _9 [7:0] $end
$scope module mod100 $end
$var wire 64 , _16 [63:0] $end
$var wire 96 - _18 [95:0] $end
$var wire 1 . _2 $end
$var wire 32 / _23 [31:0] $end
$var wire 32 0 _27 [31:0] $end
$var wire 1 1 _4 $end
$var wire 32 2 _6 [31:0] $end
$var wire 1 ' clk $end
$var wire 32 3 data_in [31:0] $end
$var wire 8 4 rot_by [7:0] $end
$var wire 1 & rst $end
$var wire 8 5 _29 [7:0] $end
$var wire 32 6 _26 [31:0] $end
$var wire 64 7 _25 [63:0] $end
$var wire 64 8 _24 [63:0] $end
$var wire 32 9 _20 [31:0] $end
$var wire 96 : _17 [95:0] $end
$var wire 64 ; _15 [63:0] $end
$var reg 32 < _10 [31:0] $end
$var reg 32 = _12 [31:0] $end
$var reg 32 > _14 [31:0] $end
$var reg 96 ? _19 [95:0] $end
$var reg 32 @ _22 [31:0] $end
$var reg 32 A _28 [31:0] $end
$upscope $end
$upscope $end
$upscope $end
$enddefinitions $end
$comment Show the parameter values. $end
$dumpall
$end
#0
$dumpvars
bx A
bx @
bx ?
bx >
bx =
bx <
b0xxxxxxxxxxxxxxxxxxxxxxxxxxxxxxxx ;
bx :
bx 9
bx 8
bx 7
bx 6
bx 5
bx 4
bx 3
bx 2
01
b0 0
b1100100 /
0.
b0 -
b10100011110101110000101001 ,
bx +
bx *
bx )
bx (
0'
0&
bx %
0$
bx #
0"
bx !
$end
#5000
b0 9
b0 6
b0 !
b0 *
b0 (
b0 +
b0 4
b0 5
b0 ?
b0 7
b0 8
b0 @
b0 :
b0 <
b0 =
b0 ;
b0 >
b0 A
b0 2
b0 %
b0 3
b0 #
b0 )
1.
1&
1$
11
1'
1"
#10000
01
0'
0"
#15000
0.
0&
0$
11
1'
1"
#20000
01
0'
0"
#25000
b101000000000000000000000000000101 :
b1111101 <
b1111101 2
b1111101 %
b1111101 3
b1111101 #
b1111101 )
11
1'
1"
#30000
01
0'
0"
#35000
b1 9
b1111101 =
b1000101000111101011100001010011 :
b11011 <
b101000000000000000000000000000101 ?
b11011 2
b11011 %
b11011 3
b11011 #
b11011 )
11
1'
1"
#40000
01
0'
0"
#45000
b0 9
b11001 6
b1000101000111101011100001010011 ?
b1100100 8
b1 @
b11111010100011110101110000101100111 :
b1100001111 <
b11011 =
b11001 7
b1111101 ;
b1111101 >
b1100001111 2
b1100001111 %
b1100001111 3
b1100001111 #
b1100001111 )
11
1'
1"
#50000
01
0'
0"
#55000
b11001 !
b11001 *
b11001 (
b11001 +
b11001 4
b11001 5
b11011 6
b111 9
b11001 A
b11011 ;
b11011 >
b1100001111 =
b101011100011110101110000101001101001 :
b10001000001 <
b11011 7
b0 8
b0 @
b11111010100011110101110000101100111 ?
b10001000001 2
b10001000001 %
b10001000001 3
b10001000001 #
b10001000001 )
11
1'
1"
#60000
01
0'
0"
#65000
b1010 9
b1010011 6
b11011 !
b11011 *
b11011 (
b11011 +
b11011 4
b11011 5
b101011100011110101110000101001101001 ?
b1010111100 8
b111 @
b100110111001010001111010111000111011011 :
b1111001100011 <
b10001000001 =
b1010011 7
b1100001111 ;
b1100001111 >
b11011 A
b1111001100011 2
b1111001100011 %
b1111001100011 3
b1111001100011 #
b1111001100011 )
11
1'
1"
#70000
01
0'
0"
#75000
b1010011 !
b1010011 *
b1010011 (
b1010011 +
b1010011 4
b1010011 5
b1011001 6
b1001101 9
b1010011 A
b10001000001 ;
b10001000001 >
b1111001100011 =
b1011001 7
b1111101000 8
b1010 @
b100110111001010001111010111000111011011 ?
11
1'
1"
#80000
01
0'
0"
#85000
b1001111 6
b1011001 !
b1011001 *
b1011001 (
b1011001 +
b1011001 4
b1011001 5
b1111000010100 8
b1001101 @
b1001111 7
b1111001100011 ;
b1111001100011 >
b1011001 A
11
1'
1"
#90000
01
0'
0"
#95000
b1001111 !
b1001111 *
b1001111 (
b1001111 +
b1001111 4
b1001111 5
b1001111 A
11
1'
1"
#100000
01
0'
0"
#105000
11
1'
1"
#110000
01
0'
0"
#115000
11
1'
1"
#120000
01
0'
0"
#125000
11
1'
1"
#130000
01
0'
0"
#135000
11
1'
1"
#140000
01
0'
0"
#145000
11
1'
1"
#150000
01
0'
0"
#155000
11
1'
1"
#160000
01
0'
0"
#165000
11
1'
1"
