Advent of Hardcaml (Harcaml)/day-1/test_fullsol_ml_AOC_Day_1_Full_Hardcaml_Solution.vcd
$date
  ...
$end
$version
  hardcaml-cyclesim
$end
$comment
  Hardware design in ocaml
$end
$timescale 1ns $end
$scope module inputs $end
$var wire 1 ! -clock $end
$var wire 1 " -reset $end
$var wire 1 % clk $end
$var wire 1 & dir_r $end
$var wire 32 # in_data $end
$var wire 1 $ rst $end
$upscope $end
$scope module outputs $end
$var wire 8 ( curr_pos_op $end
$var wire 4 ) dir_r_reg $end
$var wire 32 ' zero_count $end
$var wire 32 * zero_crossings $end
$upscope $end
$scope module various $end
$var wire 1 7 gnd $end
$scope module top $end
$scope module -inputs $end
$var wire 1 - clk $end
$var wire 1 , dir_r $end
$var wire 32 1 in_data $end
$var wire 1 . rst $end
$upscope $end
$scope module -outputs $end
$var wire 8 4 curr_pos_op $end
$var wire 4 5 dir_r_reg $end
$var wire 32 + zero_count $end
$var wire 32 6 zero_crossings $end
$upscope $end
$scope module mod100 $end
$scope module -inputs $end
$var wire 1 2 clk $end
$var wire 32 0 data_in $end
$var wire 1 3 rst $end
$upscope $end
$scope module -outputs $end
$var wire 8 / rot_by $end
$upscope $end
$upscope $end
$upscope $end
$upscope $end
$enddefinitions $end
$dumpvars
x!
x"
x%
x&
bxxxxxxxxxxxxxxxxxxxxxxxxxxxxxxxx #
x$
bxxxxxxxx (
bxxxx )
bxxxxxxxxxxxxxxxxxxxxxxxxxxxxxxxx '
bxxxxxxxxxxxxxxxxxxxxxxxxxxxxxxxx *
x7
x-
x,
bxxxxxxxxxxxxxxxxxxxxxxxxxxxxxxxx 1
x.
bxxxxxxxx 4
bxxxx 5
bxxxxxxxxxxxxxxxxxxxxxxxxxxxxxxxx +
bxxxxxxxxxxxxxxxxxxxxxxxxxxxxxxxx 6
x2
bxxxxxxxxxxxxxxxxxxxxxxxxxxxxxxxx 0
x3
bxxxxxxxx /
$end
#0
1!
0"
b00000000000000000000000000000000 #
0$
0%
0&
b00000000000000000000000000000000 '
b00110010 (
b0000 )
b00000000000000000000000000000000 *
b00000000000000000000000000000000 +
0,
0-
0.
b00000000 /
b00000000000000000000000000000000 0
b00000000000000000000000000000000 1
02
03
b00110010 4
b0000 5
b00000000000000000000000000000000 6
07
#5
0!
#10
1!
0"
1$
1.
13
#15
0!
#20
1!
0"
0$
0.
03
#25
0!
#30
1!
0"
b00000000000000000000000000000101 #
b00000000000000000000000000000101 0
b00000000000000000000000000000101 1
#35
0!
#40
1!
0"
b00000000000000000000000000100101 #
b00000000000000000000000000100101 0
b00000000000000000000000000100101 1
#45
0!
#50
1!
0"
b00000000000000000000000000100000 #
b00000000000000000000000000100000 0
b00000000000000000000000000100000 1
#55
0!
#60
1!
0"
b00000000000000000000000000000101 #
1&
1,
b00000000000000000000000000000101 0
b00000000000000000000000000000101 1
#65
0!
#70
1!
0"
b00000000000000000000000000100100 #
0&
b0001 )
0,
b00000101 /
b00000000000000000000000000100100 0
b00000000000000000000000000100100 1
b0001 5
#75
0!
#80
1!
0"
b00000000000000000000000000011101 #
b00101101 (
b0010 )
b00100101 /
b00000000000000000000000000011101 0
b00000000000000000000000000011101 1
b00101101 4
b0010 5
#85
0!
#90
1!
0"
b00000000000000000000000000001101 #
1&
b00001000 (
b0100 )
1,
b00100000 /
b00000000000000000000000000001101 0
b00000000000000000000000000001101 1
b00001000 4
b0100 5
#95
0!
#100
1!
0"
b00000000000000000000000000010001 #
b01001100 (
b1001 )
b00000000000000000000000000000001 *
b00000101 /
b00000000000000000000000000010001 0
b00000000000000000000000000010001 1
b01001100 4
b1001 5
b00000000000000000000000000000001 6
#105
0!
#110
1!
0"
b00000000000000000000000000010011 #
0&
b01010001 (
b0011 )
0,
b00100100 /
b00000000000000000000000000010011 0
b00000000000000000000000000010011 1
b01010001 4
b0011 5
#115
0!
#120
1!
0"
b00000000000000000000000000100010 #
b00101101 (
b0110 )
b00011101 /
b00000000000000000000000000100010 0
b00000000000000000000000000100010 1
b00101101 4
b0110 5
#125
0!
#130
1!
0"
b00000000000000000000000000000010 #
1&
b00010000 (
b1100 )
1,
b00001101 /
b00000000000000000000000000000010 0
b00000000000000000000000000000010 1
b00010000 4
b1100 5
#135
0!
#140
1!
0"
b00000000000000000000000000001001 #
b00011101 (
b1001 )
b00010001 /
b00000000000000000000000000001001 0
b00000000000000000000000000001001 1
b00011101 4
b1001 5
#145
0!
#150
1!
0"
b00000000000000000000000000000001 #
b00101110 (
b0011 )
b00010011 /
b00000000000000000000000000000001 0
b00000000000000000000000000000001 1
b00101110 4
b0011 5
#155
0!
#160
1!
0"
b00000000000000000000000000001011 #
b00011011 (
b0111 )
b00100010 /
b00000000000000000000000000001011 0
b00000000000000000000000000001011 1
b00011011 4
b0111 5
#165
0!
#170
1!
0"
b00000000000000000000000000100011 #
b01011101 (
b1111 )
b00000000000000000000000000000010 *
b00000010 /
b00000000000000000000000000100011 0
b00000000000000000000000000100011 1
b01011101 4
b1111 5
b00000000000000000000000000000010 6
#175
0!
#180
1!
0"
b00000000000000000000000000011010 #
b01011111 (
b00001001 /
b00000000000000000000000000011010 0
b00000000000000000000000000011010 1
b01011111 4
#185
0!
#190
1!
0"
b00000000000000000000000000010100 #
0&
b00000100 (
b00000000000000000000000000000011 *
0,
b00000001 /
b00000000000000000000000000010100 0
b00000000000000000000000000010100 1
b00000100 4
b00000000000000000000000000000011 6
#195
0!
#200
1!
0"
b00000000000000000000000000010011 #
1&
b00000101 (
b1110 )
1,
b00001011 /
b00000000000000000000000000010011 0
b00000000000000000000000000010011 1
b00000101 4
b1110 5
#205
0!
#210
1!
0"
b00000000000000000000000000101100 #
0&
b00010000 (
b1101 )
0,
b00100011 /
b00000000000000000000000000101100 0
b00000000000000000000000000101100 1
b00010000 4
b1101 5
#215
0!
#220
1!
0"
b00000000000000000000000000011011 #
b00110011 (
b1010 )
b00011010 /
b00000000000000000000000000011011 0
b00000000000000000000000000011011 1
b00110011 4
b1010 5
#225
0!
#230
1!
0"
b00000000000000000000000000001010 #
1&
b01001101 (
b0100 )
1,
b00010100 /
b00000000000000000000000000001010 0
b00000000000000000000000000001010 1
b01001101 4
b0100 5
#235
0!
#240
1!
0"
b00000000000000000000000000001110 #
0&
b00111001 (
b1001 )
0,
b00010011 /
b00000000000000000000000000001110 0
b00000000000000000000000000001110 1
b00111001 4
b1001 5
#245
0!
#250
1!
0"
b00000000000000000000000000101011 #
1&
b01001100 (
b0010 )
1,
b00101100 /
b00000000000000000000000000101011 0
b00000000000000000000000000101011 1
b01001100 4
b0010 5
#255
0!
#260
1!
0"
b00000000000000000000000000100011 #
b00100000 (
b0101 )
b00011011 /
b00000000000000000000000000100011 0
b00000000000000000000000000100011 1
b00100000 4
b0101 5
#265
0!
#270
1!
0"
b00000000000000000000000000011001 #
0&
b00000101 (
b1011 )
0,
b00001010 /
b00000000000000000000000000011001 0
b00000000000000000000000000011001 1
b00000101 4
b1011 5
#275
0!
#280
1!
0"
b00000000000000000000000000100011 #
b00001111 (
b0110 )
b00001110 /
b00000000000000000000000000100011 0
b00000000000000000000000000100011 1
b00001111 4
b0110 5
#285
0!
#290
1!
0"
b00000000000000000000000000000001 #
b00000001 (
b1100 )
b00101011 /
b00000000000000000000000000000001 0
b00000000000000000000000000000001 1
b00000001 4
b1100 5
#295
0!
#300
1!
0"
b00000000000000000000000000100010 #
1&
b00101100 (
b1000 )
1,
b00100011 /
b00000000000000000000000000100010 0
b00000000000000000000000000100010 1
b00101100 4
b1000 5
#305
0!
#310
1!
0"
b00000000000000000000000000000011 #
0&
b01001111 (
b0001 )
0,
b00011001 /
b00000000000000000000000000000011 0
b00000000000000000000000000000011 1
b01001111 4
b0001 5
#315
0!
#320
1!
0"
b00000000000000000000000000011001 #
1&
b00110110 (
b0010 )
1,
b00100011 /
b00000000000000000000000000011001 0
b00000000000000000000000000011001 1
b00110110 4
b0010 5
#325
0!
#330
1!
0"
b00000000000000000000000000000111 #
b00010011 (
b0101 )
b00000001 /
b00000000000000000000000000000111 0
b00000000000000000000000000000111 1
b00010011 4
b0101 5
#335
0!
#340
1!
0"
b00000000000000000000000000101100 #
0&
b00010010 (
b1011 )
0,
b00100010 /
b00000000000000000000000000101100 0
b00000000000000000000000000101100 1
b00010010 4
b1011 5
#345
0!
#350
1!
0"
b00000000000000000000000000001011 #
1&
b00110100 (
b0110 )
1,
b00000011 /
b00000000000000000000000000001011 0
b00000000000000000000000000001011 1
b00110100 4
b0110 5
#355
0!
#360
1!
0"
b00000000000000000000000000010111 #
0&
b00110001 (
b1101 )
0,
b00011001 /
b00000000000000000000000000010111 0
b00000000000000000000000000010111 1
b00110001 4
b1101 5
#365
0!
#370
1!
0"
b00000000000000000000000000010110 #
1&
b01001010 (
b1010 )
1,
b00000111 /
b00000000000000000000000000010110 0
b00000000000000000000000000010110 1
b01001010 4
b1010 5
#375
0!
#380
1!
0"
b00000000000000000000000000010011 #
0&
b01010001 (
b0101 )
0,
b00101100 /
b00000000000000000000000000010011 0
b00000000000000000000000000010011 1
b01010001 4
b0101 5
#385
0!
#390
1!
0"
b00000000000000000000000000100111 #
b00100101 (
b1010 )
b00001011 /
b00000000000000000000000000100111 0
b00000000000000000000000000100111 1
b00100101 4
b1010 5
#395
0!
#400
1!
0"
b00000000000000000000000000011000 #
b00110000 (
b0100 )
b00010111 /
b00000000000000000000000000011000 0
b00000000000000000000000000011000 1
b00110000 4
b0100 5
#405
0!
#410
1!
0"
b00000000000000000000000000110010 #
b00011001 (
b1000 )
b00010110 /
b00000000000000000000000000110010 0
b00000000000000000000000000110010 1
b00011001 4
b1000 5
#415
0!
#420
1!
0"
b00000000000000000000000000011110 #
1&
b00101111 (
b0000 )
1,
b00010011 /
b00000000000000000000000000011110 0
b00000000000000000000000000011110 1
b00101111 4
b0000 5
#425
0!
#430
1!
0"
b00000000000000000000000000101010 #
b00011100 (
b0001 )
b00100111 /
b00000000000000000000000000101010 0
b00000000000000000000000000101010 1
b00011100 4
b0001 5
#435
0!
#440
1!
0"
b00000000000000000000000000100111 #
b01011001 (
b0011 )
b00000000000000000000000000000100 *
b00011000 /
b00000000000000000000000000100111 0
b00000000000000000000000000100111 1
b01011001 4
b0011 5
b00000000000000000000000000000100 6
#445
0!
#450
1!
0"
b00000000000000000000000000011110 #
b01000001 (
b0111 )
b00110010 /
b00000000000000000000000000011110 0
b00000000000000000000000000011110 1
b01000001 4
b0111 5
#455
0!
#460
1!
0"
b00000000000000000000000000001001 #
b00001111 (
b1111 )
b00011110 /
b00000000000000000000000000001001 0
b00000000000000000000000000001001 1
b00001111 4
b1111 5
#465
0!
#470
1!
0"
b00000000000000000000000000101110 #
0&
b00101101 (
0,
b00101010 /
b00000000000000000000000000101110 0
b00000000000000000000000000101110 1
b00101101 4
#475
0!
#480
1!
0"
b00000000000000000000000000101101 #
1&
b01010111 (
b1110 )
1,
b00100111 /
b00000000000000000000000000101101 0
b00000000000000000000000000101101 1
b01010111 4
b1110 5
#485
0!
#490
1!
0"
b00000000000000000000000000100000 #
0&
b00011010 (
b1101 )
b00000000000000000000000000000101 *
0,
b00011110 /
b00000000000000000000000000100000 0
b00000000000000000000000000100000 1
b00011010 4
b1101 5
b00000000000000000000000000000101 6
#495
0!
#500
1!
0"
b00000000000000000000000000010110 #
1&
b00111000 (
b1010 )
1,
b00001001 /
b00000000000000000000000000010110 0
b00000000000000000000000000010110 1
b00111000 4
b1010 5
#505
0!
#510
1!
0"
b00000000000000000000000000100011 #
b01000001 (
b0101 )
b00101110 /
b00000000000000000000000000100011 0
b00000000000000000000000000100011 1
b01000001 4
b0101 5
#515
0!
#520
1!
0"
b00000000000000000000000000001011 #
b00010011 (
b1011 )
b00101101 /
b00000000000000000000000000001011 0
b00000000000000000000000000001011 1
b00010011 4
b1011 5
#525
0!
#530
1!
0"
b00000000000000000000000000100000 #
0&
b01000000 (
b0111 )
0,
b00100000 /
b00000000000000000000000000100000 0
b00000000000000000000000000100000 1
b01000000 4
b0111 5
#535
0!
#540
1!
0"
1&
b00100000 (
b1110 )
1,
b00010110 /
b00100000 4
b1110 5
#545
0!
#550
1!
0"
b00000000000000000000000001010110 #
b00110110 (
b1101 )
b00100011 /
b00000000000000000000000001010110 0
b00000000000000000000000001010110 1
b00110110 4
b1101 5
#555
0!
#560
1!
0"
b00000000000000000000000001000011 #
0&
b01011001 (
b1011 )
0,
b00001011 /
b00000000000000000000000001000011 0
b00000000000000000000000001000011 1
b01011001 4
b1011 5
#565
0!
#570
1!
0"
b00000000000000000000000000001001 #
b00000000 (
b0110 )
b00100000 /
b00000000000000000000000000001001 0
b00000000000000000000000000001001 1
b00000000 4
b0110 5
#575
0!
#580
1!
0"
b00000000000000000000000000100010 #
b00000000000000000000000000000001 '
b01000100 (
b1100 )
b00000000000000000000000000000001 +
b00000000000000000000000000100010 0
b00000000000000000000000000100010 1
b01000100 4
b1100 5
#585
0!
#590
1!
0"
b00000000000000000000000000011000 #
1&
b00000000 (
b1000 )
1,
b01010110 /
b00000000000000000000000000011000 0
b00000000000000000000000000011000 1
b00000000 4
b1000 5
#595
0!
#600
1!
0"
b00000000000000000000000001000010 #
b00000000000000000000000000000010 '
b01010110 (
b0001 )
b00000000000000000000000000000010 +
b01000011 /
b00000000000000000000000001000010 0
b00000000000000000000000001000010 1
b01010110 4
b0001 5
#605
0!
#610
1!
0"
b00000000000000000000000000100010 #
b00010011 (
b0011 )
b00001001 /
b00000000000000000000000000100010 0
b00000000000000000000000000100010 1
b00010011 4
b0011 5
#615
0!
#620
1!
0"
b00000000000000000000000000100110 #
b00001010 (
b0111 )
b00100010 /
b00000000000000000000000000100110 0
b00000000000000000000000000100110 1
b00001010 4
b0111 5
#625
0!
#630
1!
0"
b00000000000000000000000000100001 #
b01001100 (
b1111 )
b00000000000000000000000000000110 *
b00011000 /
b00000000000000000000000000100001 0
b00000000000000000000000000100001 1
b01001100 4
b1111 5
b00000000000000000000000000000110 6
#635
0!
#640
1!
0"
b00000000000000000000000001000111 #
0&
b00000000 (
0,
b01000010 /
b00000000000000000000000001000111 0
b00000000000000000000000001000111 1
b00000000 4
#645
0!
#650
1!
0"
b00000000000000000000000000001001 #
1&
b00000000000000000000000000000011 '
b01000010 (
b1110 )
b00000000000000000000000000000011 +
1,
b00100010 /
b00000000000000000000000000001001 0
b00000000000000000000000000001001 1
b01000010 4
b1110 5
#655
0!
#660
1!
0"
b00000000000000000000000001011011 #
b00000000 (
b1101 )
b00100110 /
b00000000000000000000000001011011 0
b00000000000000000000000001011011 1
b00000000 4
b1101 5
#665
0!
#670
1!
0"
b00000000000000000000000000010011 #
b00000000000000000000000000000100 '
b00100110 (
b1011 )
b00000000000000000000000000000100 +
b00100001 /
b00000000000000000000000000010011 0
b00000000000000000000000000010011 1
b00100110 4
b1011 5
#675
0!
#680
1!
0"
b00000000000000000000000001010001 #
b01000111 (
b0111 )
b01000111 /
b00000000000000000000000001010001 0
b00000000000000000000000001010001 1
b01000111 4
b0111 5
#685
0!
#690
1!
0"
b00000000000000000000000001000000 #
b00000000 (
b1111 )
b00001001 /
b00000000000000000000000001000000 0
b00000000000000000000000001000000 1
b00000000 4
b1111 5
#695
0!
#700
1!
0"
b00000000000000000000000000100100 #
b00000000000000000000000000000101 '
b00001001 (
b00000000000000000000000000000101 +
b01011011 /
b00000000000000000000000000100100 0
b00000000000000000000000000100100 1
b00001001 4
#705
0!
#710
1!
0"
b00000000000000000000000000001011 #
b00000000 (
b00010011 /
b00000000000000000000000000001011 0
b00000000000000000000000000001011 1
b00000000 4
#715
0!
#720
1!
0"
b00000000000000000000000000000010 #
b00000000000000000000000000000110 '
b00010011 (
b00000000000000000000000000000110 +
b01010001 /
b00000000000000000000000000000010 0
b00000000000000000000000000000010 1
b00010011 4
#725
0!
#730
1!
0"
b00000000000000000000000000101101 #
0&
b00000000 (
0,
b01000000 /
b00000000000000000000000000101101 0
b00000000000000000000000000101101 1
b00000000 4
#735
0!
#740
1!
0"
b00000000000000000000000001000100 #
b00000000000000000000000000000111 '
b01000000 (
b1110 )
b00000000000000000000000000000111 +
b00100100 /
b00000000000000000000000001000100 0
b00000000000000000000000001000100 1
b01000000 4
b1110 5
#745
0!
#750
1!
0"
b00000000000000000000000000011011 #
b00000000 (
b1100 )
b00001011 /
b00000000000000000000000000011011 0
b00000000000000000000000000011011 1
b00000000 4
b1100 5
#755
0!
#760
1!
0"
b00000000000000000000000000001011 #
b00000000000000000000000000001000 '
b00001011 (
b1000 )
b00000000000000000000000000001000 +
b00000010 /
b00000000000000000000000000001011 0
b00000000000000000000000000001011 1
b00001011 4
b1000 5
#765
0!
#770
1!
0"
b00000000000000000000000000011011 #
b00001101 (
b0000 )
b00101101 /
b00000000000000000000000000011011 0
b00000000000000000000000000011011 1
b00001101 4
b0000 5
#775
0!
#780
1!
0"
b00000000000000000000000000100011 #
b01000100 (
b00000000000000000000000000000111 *
b01000100 /
b00000000000000000000000000100011 0
b00000000000000000000000000100011 1
b01000100 4
b00000000000000000000000000000111 6
#785
0!
#790
1!
0"
b00000000000000000000000001100000 #
b00000000 (
b00011011 /
b00000000000000000000000001100000 0
b00000000000000000000000001100000 1
b00000000 4
#795
0!
#800
1!
0"
b00000000000000000000000000101001 #
1&
b00000000000000000000000000001001 '
b01001001 (
b00000000000000000000000000001001 +
1,
b00001011 /
b00000000000000000000000000101001 0
b00000000000000000000000000101001 1
b01001001 4
#805
0!
#810
1!
0"
b00000000000000000000000000110111 #
b00111110 (
b0001 )
b00011011 /
b00000000000000000000000000110111 0
b00000000000000000000000000110111 1
b00111110 4
b0001 5
#815
0!
#820
1!
0"
b00000000000000000000000001011101 #
b00100011 (
b0011 )
b00100011 /
b00000000000000000000000001011101 0
b00000000000000000000000001011101 1
b00100011 4
b0011 5
#825
0!
#830
1!
0"
0&
b00000000 (
b0111 )
0,
b01100000 /
b00000000 4
b0111 5
#835
0!
#840
1!
0"
b00000000000000000000000000001000 #
b00000000000000000000000000001010 '
b00000100 (
b1110 )
b00000000000000000000000000001010 +
b00101001 /
b00000000000000000000000000001000 0
b00000000000000000000000000001000 1
b00000100 4
b1110 5
#845
0!
#850
1!
0"
b00000000000000000000000001011100 #
b00101101 (
b1100 )
b00110111 /
b00000000000000000000000001011100 0
b00000000000000000000000001011100 1
b00101101 4
b1100 5
#855
0!
#860
1!
0"
b00000000000000000000000000010000 #
b00000000 (
b1000 )
b01011101 /
b00000000000000000000000000010000 0
b00000000000000000000000000010000 1
b00000000 4
b1000 5
#865
0!
#870
1!
0"
1&
b00000000000000000000000000001011 '
b01011101 (
b0000 )
b00000000000000000000000000001011 +
1,
b01011101 4
b0000 5
#875
0!
#880
1!
0"
b00000000000000000000000000101010 #
b00000000 (
b0001 )
b00001000 /
b00000000000000000000000000101010 0
b00000000000000000000000000101010 1
b00000000 4
b0001 5
#885
0!
#890
1!
0"
b00000000000000000000000000110110 #
b00000000000000000000000000001100 '
b01011100 (
b0011 )
b00000000000000000000000000001100 +
b01011100 /
b00000000000000000000000000110110 0
b00000000000000000000000000110110 1
b01011100 4
b0011 5
#895
0!
#900
1!
0"
b00000000000000000000000000001010 #
0&
b00000000 (
b0111 )
0,
b00010000 /
b00000000000000000000000000001010 0
b00000000000000000000000000001010 1
b00000000 4
b0111 5
#905
0!
#910
1!
0"
b00000000000000000000000000001110 #
1&
b00000000000000000000000000001101 '
b01010100 (
b1110 )
b00000000000000000000000000001101 +
1,
b00000000000000000000000000001110 0
b00000000000000000000000000001110 1
b01010100 4
b1110 5
#915
0!
#920
1!
0"
b00000000000000000000000000101001 #
b00000000 (
b1101 )
b00101010 /
b00000000000000000000000000101001 0
b00000000000000000000000000101001 1
b00000000 4
b1101 5
#925
0!
#930
1!
0"
b00000000000000000000000000111011 #
b00000000000000000000000000001110 '
b00101010 (
b1011 )
b00000000000000000000000000001110 +
b00110110 /
b00000000000000000000000000111011 0
b00000000000000000000000000111011 1
b00101010 4
b1011 5
#935
0!
#940
1!
0"
b00000000000000000000000000111110 #
b01100000 (
b0111 )
b00001010 /
b00000000000000000000000000111110 0
b00000000000000000000000000111110 1
b01100000 4
b0111 5
#945
0!
#950
1!
0"
b00000000000000000000000001011001 #
b01010110 (
b1111 )
b00001110 /
b00000000000000000000000001011001 0
b00000000000000000000000001011001 1
b01010110 4
b1111 5
#955
0!
#960
1!
0"
b00000000000000000000000001001101 #
b00000000 (
b00101001 /
b00000000000000000000000001001101 0
b00000000000000000000000001001101 1
b00000000 4
#965
0!
#970
1!
0"
b00000000000000000000000000001101 #
b00000000000000000000000000001111 '
b00101001 (
b00000000000000000000000000001111 +
b00111011 /
b00000000000000000000000000001101 0
b00000000000000000000000000001101 1
b00101001 4
#975
0!
#980
1!
0"
b00000000000000000000000000110111 #
0&
b00000000 (
0,
b00111110 /
b00000000000000000000000000110111 0
b00000000000000000000000000110111 1
b00000000 4
#985
0!
#990
1!
0"
b00000000000000000000000000000001 #
b00000000000000000000000000010000 '
b00111110 (
b1110 )
b00000000000000000000000000010000 +
b01011001 /
b00000000000000000000000000000001 0
b00000000000000000000000000000001 1
b00111110 4
b1110 5
#995
0!
#1000
1!
0"
b00000000000000000000000000001111 #
1&
b00110011 (
b1100 )
b00000000000000000000000000001000 *
1,
b01001101 /
b00000000000000000000000000001111 0
b00000000000000000000000000001111 1
b00110011 4
b1100 5
b00000000000000000000000000001000 6
#1005
0!
#1010
1!
0"
b00000000000000000000000000111000 #
b00011100 (
b1001 )
b00000000000000000000000000001001 *
b00001101 /
b00000000000000000000000000111000 0
b00000000000000000000000000111000 1
b00011100 4
b1001 5
b00000000000000000000000000001001 6
#1015
0!
#1020
1!
0"
0&
b00101001 (
b0011 )
0,
b00110111 /
b00101001 4
b0011 5
#1025
0!
#1030
1!
0"
b00000000000000000000000000011100 #
b01010110 (
b0110 )
b00000000000000000000000000001010 *
b00000001 /
b00000000000000000000000000011100 0
b00000000000000000000000000011100 1
b01010110 4
b0110 5
b00000000000000000000000000001010 6
#1035
0!
#1040
1!
0"
b00000000000000000000000001010100 #
1&
b01010101 (
b1100 )
1,
b00001111 /
b00000000000000000000000001010100 0
b00000000000000000000000001010100 1
b01010101 4
b1100 5
#1045
0!
#1050
1!
0"
b00000000000000000000000000011100 #
0&
b00000000 (
b1001 )
0,
b00111000 /
b00000000000000000000000000011100 0
b00000000000000000000000000011100 1
b00000000 4
b1001 5
#1055
0!
#1060
1!
0"
b00000000000000000000000000101000 #
b00000000000000000000000000010001 '
b00111000 (
b0010 )
b00000000000000000000000000010001 +
b00000000000000000000000000101000 0
b00000000000000000000000000101000 1
b00111000 4
b0010 5
#1065
0!
#1070
1!
0"
b00000000000000000000000110101011 #
1&
b00000000 (
b0100 )
1,
b00011100 /
b00000000000000000000000110101011 0
b00000000000000000000000110101011 1
b00000000 4
b0100 5
#1075
0!
#1080
1!
0"
b00000000000000000000000101010100 #
0&
b00000000000000000000000000010010 '
b01001000 (
b1001 )
b00000000000000000000000000001110 *
b00000000000000000000000000010010 +
0,
b01010100 /
b00000000000000000000000101010100 0
b00000000000000000000000101010100 1
b01001000 4
b1001 5
b00000000000000000000000000001110 6
#1085
0!
#1090
1!
0"
b00000000000000000000000001001011 #
b00111000 (
b0010 )
b00000000000000000000000000010010 *
b00011100 /
b00000000000000000000000001001011 0
b00000000000000000000000001001011 1
b00111000 4
b0010 5
b00000000000000000000000000010010 6
#1095
0!
#1100
1!
0"
b00000000000000000000000001010010 #
1&
b00011100 (
b0100 )
1,
b00101000 /
b00000000000000000000000001010010 0
b00000000000000000000000001010010 1
b00011100 4
b0100 5
#1105
0!
#1110
1!
0"
b00000000000000000000000000000010 #
0&
b01011000 (
b1001 )
b00000000000000000000000000010011 *
0,
b00011011 /
b00000000000000000000000000000010 0
b00000000000000000000000000000010 1
b01011000 4
b1001 5
b00000000000000000000000000010011 6
#1115
0!
#1120
1!
0"
b00000000000000000000000001010000 #
b00001111 (
b0010 )
b00000000000000000000000000010100 *
b00101000 /
b00000000000000000000000001010000 0
b00000000000000000000000001010000 1
b00001111 4
b0010 5
b00000000000000000000000000010100 6
#1125
0!
#1130
1!
0"
b00000000000000000000001110011110 #
1&
b01001011 (
b0100 )
b00000000000000000000000000010101 *
1,
b01001011 /
b00000000000000000000001110011110 0
b00000000000000000000001110011110 1
b01001011 4
b0100 5
b00000000000000000000000000010101 6
#1135
0!
#1140
1!
0"
b00000000000000000000000001001010 #
b00000000 (
b1001 )
b00000000000000000000000000011110 *
b01010010 /
b00000000000000000000000001001010 0
b00000000000000000000000001001010 1
b00000000 4
b1001 5
b00000000000000000000000000011110 6
#1145
0!
#1150
1!
0"
b00000000000000000000001101001110 #
0&
b00000000000000000000000000010011 '
b01010010 (
b0011 )
b00000000000000000000000000010011 +
0,
b00000010 /
b00000000000000000000001101001110 0
b00000000000000000000001101001110 1
b01010010 4
b0011 5
#1155
0!
#1160
1!
0"
b00000000000000000000000000011101 #
1&
b01010000 (
b0110 )
b00000000000000000000000000100110 *
1,
b01010000 /
b00000000000000000000000000011101 0
b00000000000000000000000000011101 1
b01010000 4
b0110 5
b00000000000000000000000000100110 6
#1165
0!
#1170
1!
0"
b00000000000000000000000000001101 #
0&
b00000000 (
b1101 )
0,
b00011010 /
b00000000000000000000000000001101 0
b00000000000000000000000000001101 1
b00000000 4
b1101 5
#1175
0!
#1180
1!
0"
b00000000000000000000000000011011 #
b00000000000000000000000000010100 '
b00011010 (
b1010 )
b00000000000000000000000000010100 +
b01001010 /
b00000000000000000000000000011011 0
b00000000000000000000000000011011 1
b00011010 4
b1010 5
#1185
0!
#1190
1!
0"
b00000000000000000000000000001111 #
b00000000 (
b0100 )
b00101110 /
b00000000000000000000000000001111 0
b00000000000000000000000000001111 1
b00000000 4
b0100 5
#1195
0!
#1200
1!
0"
b00000000000000000000001100111100 #
b00000000000000000000000000010101 '
b00110110 (
b1000 )
b00000000000000000000000000010101 +
b00011101 /
b00000000000000000000001100111100 0
b00000000000000000000001100111100 1
b00110110 4
b1000 5
#1205
0!
#1210
1!
0"
b00000000000000000000000001001011 #
1&
b01010011 (
b0000 )
b00000000000000000000000000101110 *
1,
b00001101 /
b00000000000000000000000001001011 0
b00000000000000000000000001001011 1
b01010011 4
b0000 5
b00000000000000000000000000101110 6
#1215
0!
#1220
1!
0"
b00000000000000000000000000000110 #
b01000110 (
b0001 )
b00011011 /
b00000000000000000000000000000110 0
b00000000000000000000000000000110 1
b01000110 4
b0001 5
#1225
0!
#1230
1!
0"
b00000000000000000000001101111000 #
0&
b00101011 (
b0011 )
0,
b00001111 /
b00000000000000000000001101111000 0
b00000000000000000000001101111000 1
b00101011 4
b0011 5
#1235
0!
#1240
1!
0"
b00000000000000000000000000011001 #
1&
b00011100 (
b0110 )
b00000000000000000000000000110110 *
1,
b00011100 /
b00000000000000000000000000011001 0
b00000000000000000000000000011001 1
b00011100 4
b0110 5
b00000000000000000000000000110110 6
#1245
0!
#1250
1!
0"
b00000000000000000000001001111000 #
0&
b00000000 (
b1101 )
0,
b01001011 /
b00000000000000000000001001111000 0
b00000000000000000000001001111000 1
b00000000 4
b1101 5
#1255
0!
#1260
1!
0"
b00000000000000000000000001010110 #
b00000000000000000000000000010110 '
b01001011 (
b1010 )
b00000000000000000000000000111100 *
b00000000000000000000000000010110 +
b00000110 /
b00000000000000000000000001010110 0
b00000000000000000000000001010110 1
b01001011 4
b1010 5
b00000000000000000000000000111100 6
#1265
0!
#1270
1!
0"
b00000000000000000000000001011101 #
b01010001 (
b0100 )
b01011000 /
b00000000000000000000000001011101 0
b00000000000000000000000001011101 1
b01010001 4
b0100 5
#1275
0!
#1280
1!
0"
b00000000000000000000000000110011 #
1&
b01011101 (
b1000 )
b00000000000000000000000000111101 *
1,
b00011001 /
b00000000000000000000000000110011 0
b00000000000000000000000000110011 1
b01011101 4
b1000 5
b00000000000000000000000000111101 6
#1285
0!
#1290
1!
0"
b00000000000000000000001011000100 #
0&
b00010010 (
b0001 )
b00000000000000000000000000111110 *
0,
b00100000 /
b00000000000000000000001011000100 0
b00000000000000000000001011000100 1
b00010010 4
b0001 5
b00000000000000000000000000111110 6
#1295
0!
#1300
1!
0"
b00000000000000000000000110011001 #
1&
b01010110 (
b0010 )
b00000000000000000000000001000110 *
1,
b01010110 /
b00000000000000000000000110011001 0
b00000000000000000000000110011001 1
b01010110 4
b0010 5
b00000000000000000000000001000110 6
#1305
0!
#1310
1!
0"
b00000000000000000000000000101001 #
b00000000 (
b0101 )
b00000000000000000000000001001010 *
b01011101 /
b00000000000000000000000000101001 0
b00000000000000000000000000101001 1
b00000000 4
b0101 5
b00000000000000000000000001001010 6
#1315
0!
#1320
1!
0"
b00000000000000000000000000110111 #
0&
b00000000000000000000000000010111 '
b00000111 (
b1011 )
b00000000000000000000000000010111 +
0,
b00110011 /
b00000000000000000000000000110111 0
b00000000000000000000000000110111 1
b00000111 4
b1011 5
#1325
0!
#1330
1!
0"
b00000000000000000000000000000101 #
b00111010 (
b0110 )
b00001000 /
b00000000000000000000000000000101 0
b00000000000000000000000000000101 1
b00111010 4
b0110 5
#1335
0!
#1340
1!
0"
b00000000000000000000000111001100 #
1&
b00110010 (
b1100 )
1,
b00001001 /
b00000000000000000000000111001100 0
b00000000000000000000000111001100 1
b00110010 4
b1100 5
#1345
0!
#1350
1!
0"
b00000000000000000000000000001100 #
b00111011 (
b1001 )
b00000000000000000000000001001110 *
b00101001 /
b00000000000000000000000000001100 0
b00000000000000000000000000001100 1
b00111011 4
b1001 5
b00000000000000000000000001001110 6
#1355
0!
